{


  "denali": [

    {
      "name": "征求录像意见",
      "id": "01",
      "menu": "代理人与投保人人脸同框、投保人明确答复"
    },
    {
      "name": "代理人员出示证件",
      "id": "02",
      "menu": "出示有效身份证件"

    },

    {
      "name": "代理人介绍",
      "id": "03",
      "menu":
        "投保人明确答复"

    },

    {
      "name": "书面文件为准",
      "id": "04",
      "menu":
        "投保人明确答复"

    },
    {
      "name": "保障方案说明",
      "id": "05",
      "menu":
        "投保人明确答复"

    },
    {
      "name": "条款介绍",
      "id": "06",
      "menu":
        "出示清晰的条款提示书"

    },
    {
      "name": "责任确认",
      "id": "07",
      "menu":
        "投保人明确答复"

    },
    {
      "name": "疾病观察期",
      "id": "08",
      "menu":
        "投保人明确答复"

    },
    {
      "name": "指定医疗机构",
      "id": "09",
      "menu":
        "投保人明确答复"

    },
    {
      "name": "犹豫期",
      "id": "10",
      "menu":
        "投保人明确答复"

    },
    {
      "name": "宽限期",
      "id": "11",
      "menu":
        "投保人明确答复"

    },
    {
      "name": "如实告知",
      "id": "12",
      "menu":
        "投保人明确答复"

    },
    {
      "name": "投保人证件展示",
      "id": "13",
      "menu":
        "出示有效身份证件"

    },
    {
      "name": "投保人确认",
      "id": "14",
      "menu":
        "投保人明确答复"

    },
    {
      "name": "支付提醒",
      "id": "15",
      "menu":
        "投保人明确答复"

    },
    {
      "name": "投保提示书签字",
      "id": "16",
      "menu":
        "签字结果可见"

    },
    {
      "name": "免责条款签字",
      "id": "17",
      "menu":
        "签字结果可见"

    },
    {
      "name": "个人人生保险投保单签字",
      "id": "18",
      "menu":
        "签字结果可见"

    }

  ]
}
